NC_020185.1	2697332	1071380
NC_020186.1	2450908	1071380
NC_020187.1	1779678	1071380
NC_020188.1	1449145	1071380
NC_020189.1	1324051	1071380
NC_020190.1	1053862	1071380
NC_020191.1	986391	1071380
NC_020192.1	956377	1071380
NC_020193.1	857919	1071380
NC_020194.1	492930	1071380
NC_026478.1	2476501	237631
NC_026479.1	1879391	237631
NC_026480.1	1642070	237631
NC_026481.1	884984	237631
NC_026482.1	1393419	237631
NC_026483.1	1031380	237631
NC_026484.1	957188	237631
NC_026485.1	813247	237631
NC_026486.1	733962	237631
NC_026487.1	692354	237631
NC_026488.1	690620	237631
NC_026489.1	650984	237631
NC_026490.1	606072	237631
NC_026491.1	611467	237631
NC_026492.1	575418	237631
NC_026493.1	552767	237631
NC_026494.1	576628	237631
NC_026495.1	560724	237631
NC_026496.1	571809	237631
NC_026497.1	523884	237631
NC_026498.1	470505	237631
NC_026499.1	403590	237631
NC_026500.1	344927	237631
NW_011929455.1	9182	237631
NW_011929456.1	2211	237631
NW_011929457.1	5343	237631
NW_011929458.1	3729	237631
NC_035922.1	1290777	1071383
NC_035923.1	1410756	1071383
NC_035924.1	1310278	1071383
NC_035925.1	993246	1071383
NC_035926.1	856010	1071383
NC_035927.1	770551	1071383
NC_035928.1	780220	1071383
NC_035929.1	724298	1071383
NC_035930.1	628580	1071383
NC_035931.1	586734	1071383
NC_035932.1	538562	1071383
NC_035933.1	450952	1071383
NC_035934.1	504857	1071383
NC_030976.1	175444	1080349
NC_030977.1	1274804	1080349
NC_030978.1	305615	1080349
NC_030979.1	982538	1080349
NC_030980.1	588913	1080349
NC_030981.1	264757	1080349
NC_030982.1	1051730	1080349
NC_030983.1	813827	1080349
NC_030984.1	401362	1080349
NC_030985.1	747934	1080349
NC_030970.1	632881	1080349
NC_030971.1	1033978	1080349
NC_030972.1	953685	1080349
NC_030973.1	768019	1080349
NC_030974.1	741893	1080349
NC_030975.1	896107	1080349
NW_017264705.1	6161	1080349
NW_017264707.1	13195	1080349
NW_017264708.1	7513	1080349
NW_017264709.1	3318	1080349
NW_017264710.1	2595	1080349
NW_017264711.1	2015	1080349
NW_017264712.1	1890	1080349
NW_017264706.1	63999	1080349
NC_030893.1	2061902	45286
NC_030894.1	1398029	45286
NC_030895.1	1404966	45286
NC_030896.1	1123606	45286
NC_030897.1	912650	45286
NC_030898.1	928141	45286
NC_030899.1	1093229	45286
na	26238	45286
NC_035790.1	8615222	1380566
NC_035791.1	6600061	1380566
NC_035792.1	5359152	1380566
NC_035793.1	5360579	1380566
NC_035794.1	4384548	1380566
NC_035795.1	3224313	1380566
NC_035796.1	3114031	1380566
NW_019154043.1	1247910	1380566
NW_019154044.1	841546	1380566
NW_019154045.1	703855	1380566
NW_019154046.1	580226	1380566
NW_019154047.1	512882	1380566
NW_019154048.1	366813	1380566
NW_019154049.1	352858	1380566
NW_019154050.1	727680	1380566
NW_019154051.1	181040	1380566
NW_019154052.1	222766	1380566
NW_019154053.1	143712	1380566
NW_019154054.1	136565	1380566
NW_019154055.1	135759	1380566
NW_019154056.1	237231	1380566
NW_019154057.1	97483	1380566
NW_019154058.1	73243	1380566
NW_019154059.1	57525	1380566
NW_019154060.1	109765	1380566
NW_019154061.1	54740	1380566
NW_019154062.1	222555	1380566
NW_019154063.1	46240	1380566
NW_019154064.1	74148	1380566
NW_019154065.1	201415	1380566
NW_019154066.1	33260	1380566
NW_019154067.1	30940	1380566
NW_019154068.1	23401	1380566
NW_019154069.1	20882	1380566
NW_019154070.1	20527	1380566
NW_019154071.1	18604	1380566
NW_019154072.1	13219	1380566
NW_019154073.1	11681	1380566
NW_019154074.1	10203	1380566
NW_019154075.1	9578	1380566
NW_019154076.1	8172	1380566
NW_019154077.1	7219	1380566
NW_019154078.1	6135	1380566
NW_019154079.1	3755	1380566
NW_019154080.1	3546	1380566
NW_019154081.1	3307	1380566
NW_019154082.1	1951	1380566
NW_019154083.1	1815	1380566
NW_019154084.1	1745	1380566
NC_030954.1	6042495	759273
NC_030955.1	6014962	759273
NC_030956.1	5992392	759273
NC_030957.1	5325643	759273
NC_030958.1	5201688	759273
NC_030959.1	4523820	759273
NC_030960.1	4422509	759273
NC_030961.1	4092876	759273
NC_030962.1	3084912	759273
NC_030963.1	646208	759273
NC_030964.1	597935	759273
NW_017263918.1	34771	759273
NW_017263919.1	29996	759273
NW_017263920.1	28150	759273
NW_017263921.1	27823	759273
NW_017263922.1	27135	759273
NW_017263923.1	27003	759273
NW_017263924.1	26176	759273
NW_017263925.1	25803	759273
NW_017263926.1	23831	759273
NW_017263927.1	22425	759273
NW_017263928.1	21781	759273
NW_017263929.1	19697	759273
NW_017263930.1	17011	759273
NW_017263917.1	4439061	759273
